
Finding matches.....
Index matches on: 944 until 968
Index matches on: 968 until 992
Index matches on: 7880 until 7904
Index matches on: 14792 until 14816
Index matches on: 21704 until 21728
Index matches on: 28616 until 28640
Index matches on: 35528 until 35552
Index matches on: 42440 until 42464
Index matches on: 49352 until 49376
Index matches on: 56264 until 56288
Index matches on: 63176 until 63200
Index matches on: 70088 until 70112
Index matches on: 77000 until 77024
Index matches on: 83912 until 83936
Index matches on: 90824 until 90848
Index matches on: 97736 until 97760
Index matches on: 104648 until 104672
Index matches on: 111560 until 111584
Index matches on: 118472 until 118496
Index matches on: 125384 until 125408
Index matches on: 132296 until 132320
Index matches on: 139208 until 139232
Index matches on: 146120 until 146144
Index matches on: 153032 until 153056
Index matches on: 159944 until 159968
Index matches on: 166856 until 166880
Index matches on: 173768 until 173792
Index matches on: 180680 until 180704
Index matches on: 187592 until 187616
Index matches on: 194504 until 194528
Index matches on: 201416 until 201440
Index matches on: 208328 until 208352
Index matches on: 215240 until 215264
Index matches on: 222152 until 222176
Index matches on: 229064 until 229088
Index matches on: 235976 until 236000
Index matches on: 242888 until 242912
Index matches on: 249800 until 249824
Index matches on: 256712 until 256736
Index matches on: 263624 until 263648
Index matches on: 270536 until 270560
Index matches on: 277448 until 277472
Index matches on: 284360 until 284384
Index matches on: 291272 until 291296
Index matches on: 298184 until 298208
Index matches on: 305096 until 305120
Index matches on: 312008 until 312032
Index matches on: 318920 until 318944
Index matches on: 325832 until 325856
Index matches on: 332744 until 332768
Index matches on: 339656 until 339680
Index matches on: 346568 until 346592
Index matches on: 353480 until 353504
Index matches on: 360392 until 360416
Index matches on: 367304 until 367328
Index matches on: 374216 until 374240
Index matches on: 381128 until 381152
Index matches on: 388040 until 388064
Index matches on: 394952 until 394976
Index matches on: 401864 until 401888
Index matches on: 408776 until 408800
Index matches on: 415688 until 415712
Index matches on: 422600 until 422624
Index matches on: 429512 until 429536
Index matches on: 436424 until 436448
Index matches on: 443336 until 443360
Index matches on: 450248 until 450272
Index matches on: 457160 until 457184
Index matches on: 464072 until 464096
Index matches on: 470984 until 471008
Index matches on: 477896 until 477920
Index matches on: 484808 until 484832
Index matches on: 491720 until 491744
Index matches on: 498632 until 498656
Index matches on: 505544 until 505568
Index matches on: 512456 until 512480
Index matches on: 519368 until 519392
Index matches on: 526280 until 526304
Index matches on: 533192 until 533216
Index matches on: 540104 until 540128
Index matches on: 547016 until 547040
Index matches on: 553928 until 553952
Index matches on: 560840 until 560864
Index matches on: 567752 until 567776
Index matches on: 574664 until 574688
Index matches on: 581576 until 581600
Index matches on: 588488 until 588512
Index matches on: 595400 until 595424
Index matches on: 602312 until 602336
Index matches on: 609224 until 609248
Index matches on: 616136 until 616160
Index matches on: 623048 until 623072
Index matches on: 629960 until 629984
Index matches on: 636872 until 636896
Index matches on: 643784 until 643808
Index matches on: 650696 until 650720
Index matches on: 657608 until 657632
Index matches on: 659728 until 659752
Index matches on: 659752 until 659776
Index matches on: 659776 until 659800
Index matches on: 659800 until 659824
Index matches on: 660136 until 660160
Index matches on: 660160 until 660184
Index matches on: 660184 until 660208
Index matches on: 660208 until 660232
Index matches on: 660232 until 660256
Index matches on: 660256 until 660280
Index matches on: 660280 until 660304
Index matches on: 660304 until 660328
Index matches on: 660328 until 660352
Index matches on: 660352 until 660376
Index matches on: 660376 until 660400
Index matches on: 660400 until 660424
Index matches on: 660424 until 660448
Index matches on: 660448 until 660472
Index matches on: 660472 until 660496
Index matches on: 660496 until 660520
Index matches on: 660520 until 660544
Index matches on: 660760 until 660784
Index matches on: 660784 until 660808
Index matches on: 660808 until 660832
Index matches on: 660832 until 660856
Index matches on: 660856 until 660880
Index matches on: 660880 until 660904
Index matches on: 660904 until 660928
Index matches on: 661360 until 661384
Index matches on: 661384 until 661408
Index matches on: 661408 until 661432
Index matches on: 661432 until 661456
Index matches on: 664520 until 664544
Index matches on: 666640 until 666664
Index matches on: 666664 until 666688
Index matches on: 666688 until 666712
Index matches on: 666712 until 666736
Index matches on: 667048 until 667072
Index matches on: 667072 until 667096
Index matches on: 667096 until 667120
Index matches on: 667120 until 667144
Index matches on: 667144 until 667168
Index matches on: 667168 until 667192
Index matches on: 667192 until 667216
Index matches on: 667216 until 667240
Index matches on: 667240 until 667264
Index matches on: 667264 until 667288
Index matches on: 667288 until 667312
Index matches on: 667312 until 667336
Index matches on: 667336 until 667360
Index matches on: 667360 until 667384
Index matches on: 667384 until 667408
Index matches on: 667408 until 667432
Index matches on: 667432 until 667456
Index matches on: 667600 until 667624
Index matches on: 667624 until 667648
Index matches on: 667648 until 667672
Index matches on: 667672 until 667696
Index matches on: 667696 until 667720
Index matches on: 667720 until 667744
Index matches on: 667744 until 667768
Index matches on: 667768 until 667792
Index matches on: 667792 until 667816
Index matches on: 667816 until 667840
Index matches on: 667840 until 667864
Index matches on: 667864 until 667888
Index matches on: 667888 until 667912
Index matches on: 668272 until 668296
Index matches on: 668296 until 668320
Index matches on: 668320 until 668344
Index matches on: 668344 until 668368
Index matches on: 671432 until 671456
Index matches on: 673552 until 673576
Index matches on: 673576 until 673600
Index matches on: 673600 until 673624
Index matches on: 673624 until 673648
Index matches on: 673960 until 673984
Index matches on: 673984 until 674008
Index matches on: 674008 until 674032
Index matches on: 674032 until 674056
Index matches on: 674056 until 674080
Index matches on: 674080 until 674104
Index matches on: 674104 until 674128
Index matches on: 674128 until 674152
Index matches on: 674152 until 674176
Index matches on: 674176 until 674200
Index matches on: 674200 until 674224
Index matches on: 674224 until 674248
Index matches on: 674248 until 674272
Index matches on: 674272 until 674296
Index matches on: 674296 until 674320
Index matches on: 674320 until 674344
Index matches on: 674344 until 674368
Index matches on: 674488 until 674512
Index matches on: 674512 until 674536
Index matches on: 674536 until 674560
Index matches on: 674560 until 674584
Index matches on: 674584 until 674608
Index matches on: 674608 until 674632
Index matches on: 674632 until 674656
Index matches on: 674656 until 674680
Index matches on: 674680 until 674704
Index matches on: 674704 until 674728
Index matches on: 674728 until 674752
Index matches on: 674752 until 674776
Index matches on: 674776 until 674800
Index matches on: 674800 until 674824
Index matches on: 674824 until 674848
Index matches on: 675184 until 675208
Index matches on: 675208 until 675232
Index matches on: 675232 until 675256
Index matches on: 675256 until 675280
Index matches on: 678344 until 678368
Index matches on: 680464 until 680488
Index matches on: 680488 until 680512
Index matches on: 680512 until 680536
Index matches on: 680536 until 680560
Index matches on: 680872 until 680896
Index matches on: 680896 until 680920
Index matches on: 680920 until 680944
Index matches on: 680944 until 680968
Index matches on: 681376 until 681400
Index matches on: 681400 until 681424
Index matches on: 681424 until 681448
Index matches on: 681448 until 681472
Index matches on: 681472 until 681496
Index matches on: 681496 until 681520
Index matches on: 681664 until 681688
Index matches on: 681688 until 681712
Index matches on: 681712 until 681736
Index matches on: 681736 until 681760
Index matches on: 681760 until 681784
Index matches on: 682096 until 682120
Index matches on: 682120 until 682144
Index matches on: 682144 until 682168
Index matches on: 682168 until 682192
Index matches on: 685256 until 685280
Index matches on: 687376 until 687400
Index matches on: 687400 until 687424
Index matches on: 687424 until 687448
Index matches on: 687448 until 687472
Index matches on: 687784 until 687808
Index matches on: 687808 until 687832
Index matches on: 687832 until 687856
Index matches on: 687856 until 687880
Index matches on: 688288 until 688312
Index matches on: 688312 until 688336
Index matches on: 688336 until 688360
Index matches on: 688600 until 688624
Index matches on: 688624 until 688648
Index matches on: 688648 until 688672
Index matches on: 688672 until 688696
Index matches on: 688696 until 688720
Index matches on: 689008 until 689032
Index matches on: 689032 until 689056
Index matches on: 689056 until 689080
Index matches on: 689080 until 689104
Index matches on: 692168 until 692192
Index matches on: 694288 until 694312
Index matches on: 694312 until 694336
Index matches on: 694336 until 694360
Index matches on: 694360 until 694384
Index matches on: 694696 until 694720
Index matches on: 694720 until 694744
Index matches on: 694744 until 694768
Index matches on: 694768 until 694792
Index matches on: 695200 until 695224
Index matches on: 695224 until 695248
Index matches on: 695536 until 695560
Index matches on: 695560 until 695584
Index matches on: 695584 until 695608
Index matches on: 695608 until 695632
Index matches on: 695920 until 695944
Index matches on: 695944 until 695968
Index matches on: 695968 until 695992
Index matches on: 695992 until 696016
Index matches on: 699080 until 699104
Index matches on: 701200 until 701224
Index matches on: 701224 until 701248
Index matches on: 701248 until 701272
Index matches on: 701272 until 701296
Index matches on: 701608 until 701632
Index matches on: 701632 until 701656
Index matches on: 701656 until 701680
Index matches on: 701680 until 701704
Index matches on: 702472 until 702496
Index matches on: 702496 until 702520
Index matches on: 702520 until 702544
Index matches on: 702544 until 702568
Index matches on: 702832 until 702856
Index matches on: 702856 until 702880
Index matches on: 702880 until 702904
Index matches on: 702904 until 702928
Index matches on: 705992 until 706016
Index matches on: 708112 until 708136
Index matches on: 708136 until 708160
Index matches on: 708160 until 708184
Index matches on: 708184 until 708208
Index matches on: 708520 until 708544
Index matches on: 708544 until 708568
Index matches on: 708568 until 708592
Index matches on: 708592 until 708616
Index matches on: 709384 until 709408
Index matches on: 709408 until 709432
Index matches on: 709432 until 709456
Index matches on: 709456 until 709480
Index matches on: 709744 until 709768
Index matches on: 709768 until 709792
Index matches on: 709792 until 709816
Index matches on: 709816 until 709840
Index matches on: 712904 until 712928
Index matches on: 715024 until 715048
Index matches on: 715048 until 715072
Index matches on: 715072 until 715096
Index matches on: 715096 until 715120
Index matches on: 715432 until 715456
Index matches on: 715456 until 715480
Index matches on: 715480 until 715504
Index matches on: 715504 until 715528
Index matches on: 716296 until 716320
Index matches on: 716320 until 716344
Index matches on: 716344 until 716368
Index matches on: 716368 until 716392
Index matches on: 716656 until 716680
Index matches on: 716680 until 716704
Index matches on: 716704 until 716728
Index matches on: 716728 until 716752
Index matches on: 719816 until 719840
Index matches on: 721936 until 721960
Index matches on: 721960 until 721984
Index matches on: 721984 until 722008
Index matches on: 722008 until 722032
Index matches on: 722344 until 722368
Index matches on: 722368 until 722392
Index matches on: 722392 until 722416
Index matches on: 722416 until 722440
Index matches on: 723208 until 723232
Index matches on: 723232 until 723256
Index matches on: 723256 until 723280
Index matches on: 723280 until 723304
Index matches on: 723568 until 723592
Index matches on: 723592 until 723616
Index matches on: 723616 until 723640
Index matches on: 723640 until 723664
Index matches on: 726728 until 726752
Index matches on: 728848 until 728872
Index matches on: 728872 until 728896
Index matches on: 728896 until 728920
Index matches on: 728920 until 728944
Index matches on: 729256 until 729280
Index matches on: 729280 until 729304
Index matches on: 729304 until 729328
Index matches on: 729328 until 729352
Index matches on: 730096 until 730120
Index matches on: 730120 until 730144
Index matches on: 730144 until 730168
Index matches on: 730168 until 730192
Index matches on: 730192 until 730216
Index matches on: 730480 until 730504
Index matches on: 730504 until 730528
Index matches on: 730528 until 730552
Index matches on: 730552 until 730576
Index matches on: 733640 until 733664
Index matches on: 735760 until 735784
Index matches on: 735784 until 735808
Index matches on: 735808 until 735832
Index matches on: 735832 until 735856
Index matches on: 736168 until 736192
Index matches on: 736192 until 736216
Index matches on: 736216 until 736240
Index matches on: 736240 until 736264
Index matches on: 736984 until 737008
Index matches on: 737008 until 737032
Index matches on: 737032 until 737056
Index matches on: 737056 until 737080
Index matches on: 737080 until 737104
Index matches on: 737392 until 737416
Index matches on: 737416 until 737440
Index matches on: 737440 until 737464
Index matches on: 737464 until 737488
Index matches on: 740552 until 740576
Index matches on: 742672 until 742696
Index matches on: 742696 until 742720
Index matches on: 742720 until 742744
Index matches on: 742744 until 742768
Index matches on: 743080 until 743104
Index matches on: 743104 until 743128
Index matches on: 743128 until 743152
Index matches on: 743152 until 743176
Index matches on: 743872 until 743896
Index matches on: 743896 until 743920
Index matches on: 743920 until 743944
Index matches on: 743944 until 743968
Index matches on: 743968 until 743992
Index matches on: 743992 until 744016
Index matches on: 744304 until 744328
Index matches on: 744328 until 744352
Index matches on: 744352 until 744376
Index matches on: 744376 until 744400
Index matches on: 747464 until 747488
Index matches on: 749584 until 749608
Index matches on: 749608 until 749632
Index matches on: 749632 until 749656
Index matches on: 749656 until 749680
Index matches on: 749992 until 750016
Index matches on: 750016 until 750040
Index matches on: 750040 until 750064
Index matches on: 750064 until 750088
Index matches on: 750736 until 750760
Index matches on: 750760 until 750784
Index matches on: 750784 until 750808
Index matches on: 750808 until 750832
Index matches on: 750832 until 750856
Index matches on: 750856 until 750880
Index matches on: 750880 until 750904
Index matches on: 751216 until 751240
Index matches on: 751240 until 751264
Index matches on: 751264 until 751288
Index matches on: 751288 until 751312
Index matches on: 754376 until 754400
Index matches on: 756496 until 756520
Index matches on: 756520 until 756544
Index matches on: 756544 until 756568
Index matches on: 756568 until 756592
Index matches on: 756904 until 756928
Index matches on: 756928 until 756952
Index matches on: 756952 until 756976
Index matches on: 756976 until 757000
Index matches on: 757000 until 757024
Index matches on: 757024 until 757048
Index matches on: 757048 until 757072
Index matches on: 757072 until 757096
Index matches on: 757096 until 757120
Index matches on: 757120 until 757144
Index matches on: 757144 until 757168
Index matches on: 757168 until 757192
Index matches on: 757192 until 757216
Index matches on: 757216 until 757240
Index matches on: 757240 until 757264
Index matches on: 757576 until 757600
Index matches on: 757600 until 757624
Index matches on: 757624 until 757648
Index matches on: 757648 until 757672
Index matches on: 757672 until 757696
Index matches on: 757696 until 757720
Index matches on: 757720 until 757744
Index matches on: 757744 until 757768
Index matches on: 757768 until 757792
Index matches on: 758128 until 758152
Index matches on: 758152 until 758176
Index matches on: 758176 until 758200
Index matches on: 758200 until 758224
Index matches on: 761288 until 761312
Index matches on: 763408 until 763432
Index matches on: 763432 until 763456
Index matches on: 763456 until 763480
Index matches on: 763480 until 763504
Index matches on: 763816 until 763840
Index matches on: 763840 until 763864
Index matches on: 763864 until 763888
Index matches on: 763888 until 763912
Index matches on: 763912 until 763936
Index matches on: 763936 until 763960
Index matches on: 763960 until 763984
Index matches on: 763984 until 764008
Index matches on: 764008 until 764032
Index matches on: 764032 until 764056
Index matches on: 764056 until 764080
Index matches on: 764080 until 764104
Index matches on: 764104 until 764128
Index matches on: 764128 until 764152
Index matches on: 764152 until 764176
Index matches on: 764440 until 764464
Index matches on: 764464 until 764488
Index matches on: 764488 until 764512
Index matches on: 764512 until 764536
Index matches on: 764536 until 764560
Index matches on: 764560 until 764584
Index matches on: 764584 until 764608
Index matches on: 764608 until 764632
Index matches on: 764632 until 764656
Index matches on: 765040 until 765064
Index matches on: 765064 until 765088
Index matches on: 765088 until 765112
Index matches on: 765112 until 765136
Index matches on: 768200 until 768224
Index matches on: 770320 until 770344
Index matches on: 770344 until 770368
Index matches on: 770368 until 770392
Index matches on: 770392 until 770416
Index matches on: 770728 until 770752
Index matches on: 770752 until 770776
Index matches on: 770776 until 770800
Index matches on: 770800 until 770824
Index matches on: 770824 until 770848
Index matches on: 770848 until 770872
Index matches on: 770872 until 770896
Index matches on: 770896 until 770920
Index matches on: 770920 until 770944
Index matches on: 770944 until 770968
Index matches on: 770968 until 770992
Index matches on: 770992 until 771016
Index matches on: 771016 until 771040
Index matches on: 771040 until 771064
Index matches on: 771064 until 771088
Index matches on: 771328 until 771352
Index matches on: 771352 until 771376
Index matches on: 771376 until 771400
Index matches on: 771400 until 771424
Index matches on: 771424 until 771448
Index matches on: 771448 until 771472
Index matches on: 771472 until 771496
Index matches on: 771496 until 771520
Index matches on: 771952 until 771976
Index matches on: 771976 until 772000
Index matches on: 772000 until 772024
Index matches on: 772024 until 772048
Index matches on: 775112 until 775136
Index matches on: 777232 until 777256
Index matches on: 777256 until 777280
Index matches on: 777280 until 777304
Index matches on: 777304 until 777328
Index matches on: 777640 until 777664
Index matches on: 777664 until 777688
Index matches on: 777688 until 777712
Index matches on: 777712 until 777736
Index matches on: 778216 until 778240
Index matches on: 778240 until 778264
Index matches on: 778264 until 778288
Index matches on: 778288 until 778312
Index matches on: 778312 until 778336
Index matches on: 778336 until 778360
Index matches on: 778360 until 778384
Index matches on: 778864 until 778888
Index matches on: 778888 until 778912
Index matches on: 778912 until 778936
Index matches on: 778936 until 778960
Index matches on: 782024 until 782048
Index matches on: 784144 until 784168
Index matches on: 784168 until 784192
Index matches on: 784192 until 784216
Index matches on: 784216 until 784240
Index matches on: 784552 until 784576
Index matches on: 784576 until 784600
Index matches on: 784600 until 784624
Index matches on: 784624 until 784648
Index matches on: 785104 until 785128
Index matches on: 785128 until 785152
Index matches on: 785152 until 785176
Index matches on: 785176 until 785200
Index matches on: 785200 until 785224
Index matches on: 785224 until 785248
Index matches on: 785776 until 785800
Index matches on: 785800 until 785824
Index matches on: 785824 until 785848
Index matches on: 785848 until 785872
Index matches on: 788936 until 788960
Index matches on: 791056 until 791080
Index matches on: 791080 until 791104
Index matches on: 791104 until 791128
Index matches on: 791128 until 791152
Index matches on: 791464 until 791488
Index matches on: 791488 until 791512
Index matches on: 791512 until 791536
Index matches on: 791536 until 791560
Index matches on: 792016 until 792040
Index matches on: 792040 until 792064
Index matches on: 792064 until 792088
Index matches on: 792088 until 792112
Index matches on: 792112 until 792136
Index matches on: 792688 until 792712
Index matches on: 792712 until 792736
Index matches on: 792736 until 792760
Index matches on: 792760 until 792784
Index matches on: 795848 until 795872
Index matches on: 797968 until 797992
Index matches on: 797992 until 798016
Index matches on: 798016 until 798040
Index matches on: 798040 until 798064
Index matches on: 798376 until 798400
Index matches on: 798400 until 798424
Index matches on: 798424 until 798448
Index matches on: 798448 until 798472
Index matches on: 798904 until 798928
Index matches on: 798928 until 798952
Index matches on: 798952 until 798976
Index matches on: 798976 until 799000
Index matches on: 799000 until 799024
Index matches on: 799600 until 799624
Index matches on: 799624 until 799648
Index matches on: 799648 until 799672
Index matches on: 799672 until 799696
Index matches on: 802760 until 802784
Index matches on: 804880 until 804904
Index matches on: 804904 until 804928
Index matches on: 804928 until 804952
Index matches on: 804952 until 804976
Index matches on: 805288 until 805312
Index matches on: 805312 until 805336
Index matches on: 805336 until 805360
Index matches on: 805360 until 805384
Index matches on: 805816 until 805840
Index matches on: 805840 until 805864
Index matches on: 805864 until 805888
Index matches on: 805888 until 805912
Index matches on: 806512 until 806536
Index matches on: 806536 until 806560
Index matches on: 806560 until 806584
Index matches on: 806584 until 806608
Index matches on: 809672 until 809696
Index matches on: 811792 until 811816
Index matches on: 811816 until 811840
Index matches on: 811840 until 811864
Index matches on: 811864 until 811888
Index matches on: 812200 until 812224
Index matches on: 812224 until 812248
Index matches on: 812248 until 812272
Index matches on: 812272 until 812296
Index matches on: 812728 until 812752
Index matches on: 812752 until 812776
Index matches on: 812776 until 812800
Index matches on: 812800 until 812824
Index matches on: 813424 until 813448
Index matches on: 813448 until 813472
Index matches on: 813472 until 813496
Index matches on: 813496 until 813520
Index matches on: 816584 until 816608
Index matches on: 818704 until 818728
Index matches on: 818728 until 818752
Index matches on: 818752 until 818776
Index matches on: 818776 until 818800
Index matches on: 819112 until 819136
Index matches on: 819136 until 819160
Index matches on: 819160 until 819184
Index matches on: 819184 until 819208
Index matches on: 819640 until 819664
Index matches on: 819664 until 819688
Index matches on: 819688 until 819712
Index matches on: 819712 until 819736
Index matches on: 820336 until 820360
Index matches on: 820360 until 820384
Index matches on: 820384 until 820408
Index matches on: 820408 until 820432
Index matches on: 823496 until 823520
Index matches on: 825616 until 825640
Index matches on: 825640 until 825664
Index matches on: 825664 until 825688
Index matches on: 825688 until 825712
Index matches on: 826024 until 826048
Index matches on: 826048 until 826072
Index matches on: 826072 until 826096
Index matches on: 826096 until 826120
Index matches on: 826552 until 826576
Index matches on: 826576 until 826600
Index matches on: 826600 until 826624
Index matches on: 826624 until 826648
Index matches on: 827248 until 827272
Index matches on: 827272 until 827296
Index matches on: 827296 until 827320
Index matches on: 827320 until 827344
Index matches on: 830408 until 830432
Index matches on: 832528 until 832552
Index matches on: 832552 until 832576
Index matches on: 832576 until 832600
Index matches on: 832600 until 832624
Index matches on: 832936 until 832960
Index matches on: 832960 until 832984
Index matches on: 832984 until 833008
Index matches on: 833008 until 833032
Index matches on: 833488 until 833512
Index matches on: 833512 until 833536
Index matches on: 833536 until 833560
Index matches on: 833560 until 833584
Index matches on: 833800 until 833824
Index matches on: 833824 until 833848
Index matches on: 834160 until 834184
Index matches on: 834184 until 834208
Index matches on: 834208 until 834232
Index matches on: 834232 until 834256
Index matches on: 837320 until 837344
Index matches on: 839440 until 839464
Index matches on: 839464 until 839488
Index matches on: 839488 until 839512
Index matches on: 839512 until 839536
Index matches on: 839848 until 839872
Index matches on: 839872 until 839896
Index matches on: 839896 until 839920
Index matches on: 839920 until 839944
Index matches on: 840400 until 840424
Index matches on: 840424 until 840448
Index matches on: 840448 until 840472
Index matches on: 840472 until 840496
Index matches on: 840496 until 840520
Index matches on: 840664 until 840688
Index matches on: 840688 until 840712
Index matches on: 840712 until 840736
Index matches on: 840736 until 840760
Index matches on: 841072 until 841096
Index matches on: 841096 until 841120
Index matches on: 841120 until 841144
Index matches on: 841144 until 841168
Index matches on: 844232 until 844256
Index matches on: 846136 until 846160
Index matches on: 846160 until 846184
Index matches on: 846184 until 846208
Index matches on: 846208 until 846232
Index matches on: 846232 until 846256
Index matches on: 846256 until 846280
Index matches on: 846280 until 846304
Index matches on: 846304 until 846328
Index matches on: 846328 until 846352
Index matches on: 846352 until 846376
Index matches on: 846376 until 846400
Index matches on: 846400 until 846424
Index matches on: 846424 until 846448
Index matches on: 846448 until 846472
Index matches on: 846472 until 846496
Index matches on: 846496 until 846520
Index matches on: 846520 until 846544
Index matches on: 846544 until 846568
Index matches on: 846568 until 846592
Index matches on: 846592 until 846616
Index matches on: 846616 until 846640
Index matches on: 846640 until 846664
Index matches on: 846760 until 846784
Index matches on: 846784 until 846808
Index matches on: 846808 until 846832
Index matches on: 846832 until 846856
Index matches on: 846856 until 846880
Index matches on: 846880 until 846904
Index matches on: 846904 until 846928
Index matches on: 846928 until 846952
Index matches on: 846952 until 846976
Index matches on: 846976 until 847000
Index matches on: 847000 until 847024
Index matches on: 847024 until 847048
Index matches on: 847048 until 847072
Index matches on: 847072 until 847096
Index matches on: 847096 until 847120
Index matches on: 847120 until 847144
Index matches on: 847144 until 847168
Index matches on: 847336 until 847360
Index matches on: 847360 until 847384
Index matches on: 847384 until 847408
Index matches on: 847408 until 847432
Index matches on: 847432 until 847456
Index matches on: 847456 until 847480
Index matches on: 847480 until 847504
Index matches on: 847504 until 847528
Index matches on: 847528 until 847552
Index matches on: 847552 until 847576
Index matches on: 847576 until 847600
Index matches on: 847600 until 847624
Index matches on: 847624 until 847648
Index matches on: 847648 until 847672
Index matches on: 847768 until 847792
Index matches on: 847792 until 847816
Index matches on: 847816 until 847840
Index matches on: 847840 until 847864
Index matches on: 847864 until 847888
Index matches on: 847888 until 847912
Index matches on: 847912 until 847936
Index matches on: 847936 until 847960
Index matches on: 847960 until 847984
Index matches on: 847984 until 848008
Index matches on: 848008 until 848032
Index matches on: 848032 until 848056
Index matches on: 848056 until 848080
Index matches on: 848080 until 848104
Index matches on: 848104 until 848128
Index matches on: 848128 until 848152
Index matches on: 848152 until 848176
Index matches on: 848176 until 848200
Index matches on: 848200 until 848224
Index matches on: 848224 until 848248
Index matches on: 848248 until 848272
Index matches on: 848272 until 848296
Index matches on: 851144 until 851168
Index matches on: 853048 until 853072
Index matches on: 853072 until 853096
Index matches on: 853096 until 853120
Index matches on: 853120 until 853144
Index matches on: 853144 until 853168
Index matches on: 853168 until 853192
Index matches on: 853192 until 853216
Index matches on: 853216 until 853240
Index matches on: 853240 until 853264
Index matches on: 853264 until 853288
Index matches on: 853288 until 853312
Index matches on: 853312 until 853336
Index matches on: 853336 until 853360
Index matches on: 853360 until 853384
Index matches on: 853384 until 853408
Index matches on: 853408 until 853432
Index matches on: 853432 until 853456
Index matches on: 853456 until 853480
Index matches on: 853480 until 853504
Index matches on: 853504 until 853528
Index matches on: 853528 until 853552
Index matches on: 853552 until 853576
Index matches on: 853672 until 853696
Index matches on: 853696 until 853720
Index matches on: 853720 until 853744
Index matches on: 853744 until 853768
Index matches on: 853768 until 853792
Index matches on: 853792 until 853816
Index matches on: 853816 until 853840
Index matches on: 853840 until 853864
Index matches on: 853864 until 853888
Index matches on: 853888 until 853912
Index matches on: 853912 until 853936
Index matches on: 853936 until 853960
Index matches on: 853960 until 853984
Index matches on: 853984 until 854008
Index matches on: 854008 until 854032
Index matches on: 854032 until 854056
Index matches on: 854056 until 854080
Index matches on: 854272 until 854296
Index matches on: 854296 until 854320
Index matches on: 854320 until 854344
Index matches on: 854344 until 854368
Index matches on: 854368 until 854392
Index matches on: 854392 until 854416
Index matches on: 854416 until 854440
Index matches on: 854440 until 854464
Index matches on: 854464 until 854488
Index matches on: 854488 until 854512
Index matches on: 854512 until 854536
Index matches on: 854536 until 854560
Index matches on: 854680 until 854704
Index matches on: 854704 until 854728
Index matches on: 854728 until 854752
Index matches on: 854752 until 854776
Index matches on: 854776 until 854800
Index matches on: 854800 until 854824
Index matches on: 854824 until 854848
Index matches on: 854848 until 854872
Index matches on: 854872 until 854896
Index matches on: 854896 until 854920
Index matches on: 854920 until 854944
Index matches on: 854944 until 854968
Index matches on: 854968 until 854992
Index matches on: 854992 until 855016
Index matches on: 855016 until 855040
Index matches on: 855040 until 855064
Index matches on: 855064 until 855088
Index matches on: 855088 until 855112
Index matches on: 855112 until 855136
Index matches on: 855136 until 855160
Index matches on: 855160 until 855184
Index matches on: 855184 until 855208
Index matches on: 858056 until 858080
Index matches on: 859960 until 859984
Index matches on: 859984 until 860008
Index matches on: 860008 until 860032
Index matches on: 860032 until 860056
Index matches on: 860056 until 860080
Index matches on: 860080 until 860104
Index matches on: 860104 until 860128
Index matches on: 860128 until 860152
Index matches on: 860152 until 860176
Index matches on: 860176 until 860200
Index matches on: 860200 until 860224
Index matches on: 860224 until 860248
Index matches on: 860248 until 860272
Index matches on: 860272 until 860296
Index matches on: 860296 until 860320
Index matches on: 860320 until 860344
Index matches on: 860344 until 860368
Index matches on: 860368 until 860392
Index matches on: 860392 until 860416
Index matches on: 860416 until 860440
Index matches on: 860440 until 860464
Index matches on: 860464 until 860488
Index matches on: 860584 until 860608
Index matches on: 860608 until 860632
Index matches on: 860632 until 860656
Index matches on: 860656 until 860680
Index matches on: 860680 until 860704
Index matches on: 860704 until 860728
Index matches on: 860728 until 860752
Index matches on: 860752 until 860776
Index matches on: 860776 until 860800
Index matches on: 860800 until 860824
Index matches on: 860824 until 860848
Index matches on: 860848 until 860872
Index matches on: 860872 until 860896
Index matches on: 860896 until 860920
Index matches on: 860920 until 860944
Index matches on: 860944 until 860968
Index matches on: 860968 until 860992
Index matches on: 861232 until 861256
Index matches on: 861256 until 861280
Index matches on: 861280 until 861304
Index matches on: 861304 until 861328
Index matches on: 861328 until 861352
Index matches on: 861352 until 861376
Index matches on: 861376 until 861400
Index matches on: 861400 until 861424
Index matches on: 861592 until 861616
Index matches on: 861616 until 861640
Index matches on: 861640 until 861664
Index matches on: 861664 until 861688
Index matches on: 861688 until 861712
Index matches on: 861712 until 861736
Index matches on: 861736 until 861760
Index matches on: 861760 until 861784
Index matches on: 861784 until 861808
Index matches on: 861808 until 861832
Index matches on: 861832 until 861856
Index matches on: 861856 until 861880
Index matches on: 861880 until 861904
Index matches on: 861904 until 861928
Index matches on: 861928 until 861952
Index matches on: 861952 until 861976
Index matches on: 861976 until 862000
Index matches on: 862000 until 862024
Index matches on: 862024 until 862048
Index matches on: 862048 until 862072
Index matches on: 862072 until 862096
Index matches on: 862096 until 862120
Index matches on: 864968 until 864992
Index matches on: 871880 until 871904
Index matches on: 878792 until 878816
Index matches on: 885704 until 885728
Index matches on: 892616 until 892640
Index matches on: 899528 until 899552
Index matches on: 906440 until 906464
Index matches on: 913352 until 913376
Index matches on: 920264 until 920288
Index matches on: 927176 until 927200
Index matches on: 934088 until 934112
Index matches on: 941000 until 941024
Index matches on: 947912 until 947936
Index matches on: 954824 until 954848
Index matches on: 961736 until 961760
Index matches on: 968648 until 968672
Index matches on: 975560 until 975584
Index matches on: 982472 until 982496
Index matches on: 989384 until 989408
Index matches on: 996296 until 996320
Index matches on: 1003208 until 1003232
Index matches on: 1010120 until 1010144
Index matches on: 1017032 until 1017056
Index matches on: 1023944 until 1023968
Index matches on: 1030856 until 1030880
Index matches on: 1037768 until 1037792
Index matches on: 1044680 until 1044704
Index matches on: 1051592 until 1051616
Index matches on: 1058504 until 1058528
Index matches on: 1065416 until 1065440
Index matches on: 1072328 until 1072352
Index matches on: 1079240 until 1079264
Index matches on: 1086152 until 1086176
Index matches on: 1093064 until 1093088
Index matches on: 1099976 until 1100000
Index matches on: 1106888 until 1106912
Index matches on: 1113800 until 1113824
Index matches on: 1120712 until 1120736
Index matches on: 1127624 until 1127648
Index matches on: 1134536 until 1134560
Index matches on: 1141448 until 1141472
Index matches on: 1148360 until 1148384
Index matches on: 1155272 until 1155296
Index matches on: 1162184 until 1162208
Index matches on: 1169096 until 1169120
Index matches on: 1176008 until 1176032
Index matches on: 1182920 until 1182944
Index matches on: 1189832 until 1189856
Index matches on: 1196744 until 1196768
Index matches on: 1203656 until 1203680
Index matches on: 1210568 until 1210592
Index matches on: 1217480 until 1217504
Index matches on: 1224392 until 1224416
Index matches on: 1231304 until 1231328
Index matches on: 1238216 until 1238240
Index matches on: 1245128 until 1245152
Index matches on: 1252040 until 1252064
Index matches on: 1258952 until 1258976
Index matches on: 1265864 until 1265888
Index matches on: 1272776 until 1272800
Index matches on: 1279688 until 1279712
Index matches on: 1286600 until 1286624
Index matches on: 1293512 until 1293536
Index matches on: 1300424 until 1300448
Index matches on: 1307336 until 1307360
Index matches on: 1314248 until 1314272
Index matches on: 1321160 until 1321184
Index matches on: 1328072 until 1328096
Index matches on: 1334984 until 1335008
